…
# We are using a grid approximation. Create every combination of mean and sd.
# Joint probability as product of each one's prior probability.
df <- data_frame(each_mean, p_mean) %>%
  expand(nesting(each_mean, p_mean), nesting(each_sd, p_sd)) %>%
  mutate(prior = p_sd * p_mean,
         posterior = prior,
         data_seen = 0)
df
#> # A tibble: 671 × 7
#>    each_mean     p_mean each_sd       p_sd       prior   posterior
#>        <dbl>      <dbl>   <int>      <dbl>       <dbl>       <dbl>
#> 1         70 0.01639344      10 0.09090909 0.001490313 0.001490313
#> 2         70 0.01639344      11 0.09090909 0.001490313 0.001490313
#> 3         70 0.01639344      12 0.09090909 0.001490313 0.001490313
#> 4         70 0.01639344      13 0.09090909 0.001490313 0.001490313
#> 5         70 0.01639344      14 0.09090909 0.001490313 0.001490313
#> 6         70 0.01639344      15 0.09090909 0.001490313 0.001490313
#> 7         70 0.01639344      16 0.09090909 0.001490313 0.001490313
#> 8         70 0.01639344      17 0.09090909 0.001490313 0.001490313
#> 9         70 0.01639344      18 0.09090909 0.001490313 0.001490313
#> 10        70 0.01639344      19 0.09090909 0.001490313 0.001490313
#> # ... with 661 more rows, and 1 more variables: data_seen <dbl>
…
iq_sequence %>% 
  purrr::map_dbl(~ sum(.x$posterior))
#>  [1] 1 1 1 1 1 1 1 1 1 1 1 1 1 1 1 1 1 1 1 1 1 1 1 1 1 1 1 1

df_fit <- iq_sequence %>%
  purrr::accumulate(bind_rows) %>%
  # Create animation steps
  purrr::map(. %>% mutate(step = max(data_seen)) %>%
               # Keep last five data_seen values.
               filter(step - data_seen <= 5) %>%
               # Create a column to control transparency using recency
               mutate(alpha = 1 - ((step - data_seen) / 5))) %>%
  bind_rows
df_fit
#> # A tibble: 102,663 × 10
#>    each_mean     p_mean each_sd       p_sd       prior   posterior
#>        <dbl>      <dbl>   <int>      <dbl>       <dbl>       <dbl>
#> 1         70 0.01639344      10 0.09090909 0.001490313 0.001490313
#> 2         70 0.01639344      11 0.09090909 0.001490313 0.001490313
#> 3         70 0.01639344      12 0.09090909 0.001490313 0.001490313
#> 4         70 0.01639344      13 0.09090909 0.001490313 0.001490313
#> 5         70 0.01639344      14 0.09090909 0.001490313 0.001490313
#> 6         70 0.01639344      15 0.09090909 0.001490313 0.001490313
#> 7         70 0.01639344      16 0.09090909 0.001490313 0.001490313
#> 8         70 0.01639344      17 0.09090909 0.001490313 0.001490313
#> 9         70 0.01639344      18 0.09090909 0.001490313 0.001490313
#> 10        70 0.01639344      19 0.09090909 0.001490313 0.001490313
#> # ... with 102,653 more rows, and 4 more variables: data_seen <dbl>,
#> #   step <dbl>, alpha <dbl>, likelihood <dbl>

# Also want a data-frame of the cumulative data-set as each new point is added.
# This lets us plot a rug of raw data.
data_sequence <- data_sequence %>% 
  purrr::map_df(~ data_frame(iq = .x, data_seen = length(iq))) %>% 
  group_by(data_seen) %>% 
  mutate(step = max(data_seen), sequence = seq_along(data_seen), current = sequence == max(sequence)) %>% 
  select(-sequence) %>% 
  ungroup
data_sequence
#> # A tibble: 378 × 4
#>       iq data_seen  step current
#>    <int>     <int> <int>   <lgl>
#> 1     82         1     1    TRUE
#> 2     82         2     2   FALSE
#> 3     80         2     2    TRUE
#> 4     82         3     3   FALSE
#> 5     80         3     3   FALSE
#> 6     88         3     3    TRUE
#> 7     82         4     4   FALSE
#> 8     80         4     4   FALSE
#> 9     88         4     4   FALSE
#> 10   108         4     4    TRUE
#> # ... with 368 more rows
…
